<?xml version="1.0" encoding="utf-8"?>
<svg width="100%" height="100%" viewBox="0 0 143 69" version="1.1" style="fill-rule:evenodd;clip-rule:evenodd;stroke-linejoin:round;stroke-miterlimit:1.41421;" xmlns="http://www.w3.org/2000/svg">
  <g>
    <path d="M115.154,45.064c0,0.263 -0.011,0.521 -0.031,0.775l0,6.881c0,0.649 -0.526,1.175 -1.173,1.176l-7.627,0.014c-2.598,0 -4.718,-0.883 -6.363,-2.652c-2.183,-2.347 -2.916,-5.216 -2.203,-8.607c0.151,-0.72 0.439,-1.433 0.829,-2.057c1.879,-2.999 4.457,-4.499 7.737,-4.499c2.609,0 4.774,0.944 6.496,2.83c1.557,1.732 2.335,3.778 2.335,6.139" style="fill-rule: nonzero; fill: rgb(255, 178, 0);"/>
    <path d="M131.772,63.063c0,-2.825 2.289,-5.114 5.113,-5.114c2.824,0 5.115,2.289 5.115,5.114c0,2.824 -2.291,5.114 -5.115,5.114c-2.824,0 -5.113,-2.29 -5.113,-5.114" style="fill-rule: nonzero; fill: rgb(4, 16, 93);"/>
    <path d="M41.968,57.965c-7.144,0 -12.955,-5.812 -12.955,-12.956c0,-7.142 5.811,-12.953 12.955,-12.953c7.142,0 12.954,5.811 12.954,12.953c0,7.144 -5.812,12.956 -12.954,12.956m0,-36.137c-12.783,0 -23.183,10.4 -23.183,23.181c0,12.784 10.4,23.183 23.183,23.183c12.783,0 23.182,-10.399 23.182,-23.183c0,-12.781 -10.399,-23.181 -23.182,-23.181" style="fill-rule: nonzero; fill: rgb(4, 16, 93);"/>
    <path d="M74.146,68.141c-2.805,0 -5.077,-2.274 -5.077,-5.077l0,-57.841c0,-2.803 2.272,-5.077 5.077,-5.077c2.804,0 5.077,2.274 5.077,5.077l0,57.841c0,2.803 -2.273,5.077 -5.077,5.077" style="fill-rule: nonzero; fill: rgb(4, 16, 93);"/>
    <path d="M15.211,22.372l-5.057,0l0,-17.148c0,-2.804 -2.273,-5.078 -5.077,-5.078c-2.804,0 -5.077,2.274 -5.077,5.078l0,57.838c0,2.805 2.273,5.078 5.077,5.078c2.804,0 5.077,-2.273 5.077,-5.078l0,-30.536l5.057,0c2.804,0 5.076,-2.273 5.076,-5.077c0,-2.803 -2.272,-5.077 -5.076,-5.077" style="fill-rule: nonzero; fill: rgb(4, 16, 93);"/>
    <path d="M109.546,22.047c-15.826,-2.146 -29.153,11.803 -25.916,27.781c1.861,9.185 9.427,16.456 18.667,18.023c1.422,0.24 2.815,0.307 4.192,0.296l0,0.001l3.515,0c2.825,0 5.114,-2.289 5.114,-5.114c0,-2.825 -2.238,-5.098 -5.062,-5.098l-0.012,0l-3.631,0c-0.94,0.007 -1.897,-0.058 -2.875,-0.264c-5.001,-1.048 -8.999,-5.16 -9.938,-10.181c-1.886,-10.107 8.059,-18.676 18.361,-14.234c4.599,1.985 7.378,6.746 7.317,11.754l0,18.052c0,2.824 2.29,5.115 5.114,5.115c2.823,0 5.114,-2.291 5.114,-5.115l0,-17.285c0,-11.142 -8.919,-22.234 -19.96,-23.731" style="fill-rule: nonzero; fill: rgb(4, 16, 93);"/>
  </g>
</svg>